5941ff906cf10dbfa8605512f2b75d3471ebb5844e554bf083f77d5d *./tests/data/f1.raw
6a3a277be896d08f5e7dfcf57e4bfba1d6e608c81fe9748ecbb025374682fbd7 *./tests/data/f2.raw
df8d918c8879837564e65d6570c47e95e23a5f334fb32a63a46ebc9c4bf1cb8814dd13625c08b4ad96fed809b76b3689 *./tests/data/f3.raw
41ac43f014eec014768a2b4931101b6fcc7ae557959c7870362527663eed464f65d1380a64175614e8da7a205bffb6d8b5a5d2b7b246b00cf3c503388de31437 *./tests/data/f4.raw
b6e9fe2e2f52d18950681868c10d95909e06ee50cec4029f5b585445acc325a19bd9b9750da6cbecbb0e7c84b52e40b7b00efd05689c4d466ab9f2b112ee4697 *./tests/data/UTF8-Text-POSIX.txt
KECCAK256 (./tests/data/one-line-text.txt) = 3ea2f1d0abf3fc66cf29eebb70cbd4e7fe762ef8a09bcc06c8edf641230afec0
SHA3_256 (./tests/data/D01/folder name with spaces/Contenu avec des espaces et des caractères spéciaux.pdf) = d429b04e3499b05c15d840b62ae484d3e417c486effedf752d185b07b5de49bc
SHA3_256 (./tests/data/D01/folder name with spaces/Un autre fichier àéèüöç😈ЂЩѼ.pdf) = d4be0fe9f70f3b2396b5c8e9a563cc09a44829c92df94d80f3d9bf63f6457cfc
d4be0fe9f70f3b2396b5c8e9a563cc09a44829c92df94d80f3d9bf63f6457cfc *./tests/data/D01/folder name with spaces/Un autre fichier àéèüöç😈ЂЩѼ.pdf
d429b04e3499b05c15d840b62ae484d3e417c486effedf752d185b07b5de49bc *./tests/data/D01/folder name with spaces/Contenu avec des espaces et des caractères spéciaux.pdf